D-latch/simulation/sim/dump.vcd
$date
	Tue Feb 23 16:37:01 2021
$end
$version
	ModelSim Version 10.5b
$end
$timescale
	100ps
$end

$scope module testbench $end
$var reg 1 ! clk $end
$var reg 1 " d $end
$var wire 1 # q $end
$var wire 1 $ q_n $end

$scope module d_latch $end
$var wire 1 % clk $end
$var wire 1 & d $end
$var wire 1 # q $end
$var wire 1 $ q_n $end
$var wire 1 ' r $end
$var wire 1 ( s $end

$scope module sr_latch $end
$var wire 1 ( s $end
$var wire 1 ' r $end
$var wire 1 # q $end
$var wire 1 $ q_n $end
$upscope $end
$upscope $end
$upscope $end
$enddefinitions $end
#0
$dumpvars
x!
x"
x#
x$
x'
x(
x&
x%
$end
#200
0!
0"
0%
0&
0'
0(
#400
1!
1%
1'
0#
1$
#600
0!
1"
0%
1&
0'
#800
1!
1%
1(
0$
1#
#1000
0!
0"
0%
0&
0(
#1200
1!
1%
1'
0#
1$
#1400
0!
1"
0%
1&
0'
#1600
1!
1%
1(
0$
1#
#1700
0"
0&
1'
0(
0#
1$
#1800
0!
0%
0'
#2000
1!
1%
1'
#2100
1"
1&
0'
1(
0$
1#
#2200
0!
0%
0(
#2400
1!
1%
1(
#2500
0"
0&
1'
0(
0#
1$
